Division,WeightClassKg,Place,Name,Team,BodyweightKg,Best3SquatKg,Best3BenchKg,Best3DeadliftKg,TotalKg,Equipment,Event,Sex,BirthDate
Girls,44.23,1,Emily Drake,Redwater,42.18,72.57,43.09,83.91,199.58,Single-ply,SBD,F,
Girls,44.23,2,Kaitlyn Barnett,Quitman,43.73,65.77,38.56,86.18,190.51,Single-ply,SBD,F,
Girls,44.23,3,Toyanna Harris,Commerce,39.46,61.23,31.75,81.65,174.63,Single-ply,SBD,F,
Girls,44.23,4,Viviana Moreno,Royse City,43.09,34.02,20.41,36.29,90.72,Single-ply,SBD,F,
Girls,47.85,1,Alexa Morones,Wills Point,47.45,108.86,38.56,92.99,240.4,Single-ply,SBD,F,
Girls,47.85,2,Felicity Frushour,Redwater,45.81,88.45,49.9,83.91,222.26,Single-ply,SBD,F,
Girls,47.85,3,Cristina Ramirez,Quitman,45.81,83.91,34.02,83.91,201.85,Single-ply,SBD,F,
Girls,51.94,1,Micah Monday,Winnsboro,50.35,138.35,77.11,136.08,351.53,Single-ply,SBD,F,
Girls,51.94,2,Tristian Dykes,Brownsboro,49.9,113.4,65.77,97.52,276.69,Single-ply,SBD,F,
Girls,51.94,3,Brandi Stuckey,Ore City,50.8,99.79,43.09,92.99,235.87,Single-ply,SBD,F,
Girls,51.94,4,Vanessa Aguilar,Mount Vernon,50.89,90.72,36.29,92.99,219.99,Single-ply,SBD,F,
Girls,51.94,5,Kaley Crabtree,Redwater,49.26,83.91,34.02,92.99,210.92,Single-ply,SBD,F,
Girls,51.94,6,Brenna Merillat,Royse City,50.35,90.72,40.82,77.11,208.65,Single-ply,SBD,F,
Girls,51.94,7,Jaden Buchanan #1,Commerce,51.26,86.18,38.56,83.91,208.65,Single-ply,SBD,F,
Girls,51.94,8,Skylar Flores,Quitman,48.53,77.11,34.02,83.91,195.04,Single-ply,SBD,F,
Girls,51.94,DQ,Elizabeth Strube,Gilmer Union Hill,49.44,,,,,Single-ply,SBD,F,
Girls,56.02,1,McKenzie Blackwood,Redwater,53.52,122.47,58.97,117.93,299.37,Single-ply,SBD,F,
Girls,56.02,2,Emaly Sneed,Pattonville Prairiland,55.79,106.59,68.04,124.74,299.37,Single-ply,SBD,F,
Girls,56.02,3,Brooklyn Marcee,Quitman,55.34,115.67,61.23,111.13,288.03,Single-ply,SBD,F,
Girls,56.02,4,Rylee Davidson #1,Gilmer Union Hill,55.34,108.86,58.97,117.93,285.76,Single-ply,SBD,F,
Girls,56.02,5,Jaylee Bennett,Winnsboro,55.34,106.59,56.7,115.67,278.96,Single-ply,SBD,F,
Girls,56.02,6,Alexandria Canales,Royse City,55.79,108.86,43.09,106.59,258.55,Single-ply,SBD,F,
Girls,56.02,7,Emma Pearson #1,Wills Point,53.98,102.06,47.63,102.06,251.74,Single-ply,SBD,F,
Girls,56.02,8,Emy Bradford,Redwater,54.88,95.25,40.82,97.52,233.6,Single-ply,SBD,F,
Girls,56.02,9,Isis Ibarra,Royse City,54.88,86.18,34.02,111.13,231.33,Single-ply,SBD,F,
Girls,56.02,10,Breanna Harmon,Redwater,52.16,77.11,40.82,104.33,222.26,Single-ply,SBD,F,
Girls,56.02,11,Margaret Zimmer,Winnsboro,55.79,83.91,47.63,88.45,219.99,Single-ply,SBD,F,
Girls,56.02,12,Hannah Sharpless,Beckville,53.07,90.72,29.48,92.99,213.19,Single-ply,SBD,F,
Girls,60.1,1,Shay Smith #1,Mount Vernon,57.15,127.01,61.23,145.15,333.39,Single-ply,SBD,F,
Girls,60.1,2,GyGy Santoy,Winnsboro,58.51,124.74,63.5,129.27,317.51,Single-ply,SBD,F,
Girls,60.1,3,Jenna Holland,Gilmer Union Hill,58.06,113.4,68.04,127.01,308.44,Single-ply,SBD,F,
Girls,60.1,4,Mya Wilson,Commerce,57.15,111.13,52.16,124.74,288.03,Single-ply,SBD,F,
Girls,60.1,5,Kitana Vaughn,Winnsboro,59.42,99.79,52.16,131.54,283.5,Single-ply,SBD,F,
Girls,60.1,6,Angel Barton,Winnsboro,59.42,111.13,45.36,106.59,263.08,Single-ply,SBD,F,
Girls,60.1,7,Maxime Risner,Winnsboro,58.06,97.52,56.7,104.33,258.55,Single-ply,SBD,F,
Girls,60.1,8,Mariska de Bruijn,Mount Vernon,59.69,111.13,38.56,108.86,258.55,Single-ply,SBD,F,
Girls,60.1,9,Alexis Jandrew,Wills Point,56.7,97.52,43.09,86.18,226.8,Single-ply,SBD,F,
Girls,60.1,10,Bailee Hubbard,Royse City,56.97,90.72,31.75,95.25,217.72,Single-ply,SBD,F,
Girls,60.1,11,Alli Kellum,Winnsboro,59.33,79.38,43.09,92.99,215.46,Single-ply,SBD,F,
Girls,60.1,12,Alexis Smith,Wills Point,57.15,81.65,36.29,92.99,210.92,Single-ply,SBD,F,
Girls,60.1,13,Reese Dudley,Beckville,58.97,74.84,36.29,97.52,208.65,Single-ply,SBD,F,
Girls,60.1,14,Jenna Buchanan,Commerce,57.61,65.77,43.09,88.45,197.31,Single-ply,SBD,F,
Girls,60.1,15,Caitlyn Elliott,Quitman,56.7,77.11,34.02,81.65,192.78,Single-ply,SBD,F,
Girls,60.1,16,Tristan Wood,Quitman,56.25,77.11,36.29,72.57,185.97,Single-ply,SBD,F,
Girls,60.1,17,Zinah Al-Khafaji,Royse City,57.15,45.36,22.68,45.36,113.4,Single-ply,SBD,F,
Girls,67.36,1,Haley Lee,Brownsboro,63.5,131.54,74.84,133.81,340.19,Single-ply,SBD,F,
Girls,67.36,2,Brooke Usrey,Redwater,64.41,122.47,68.04,124.74,315.25,Single-ply,SBD,F,
Girls,67.36,3,Arleen Depich,Commerce,66.22,129.27,58.97,124.74,312.98,Single-ply,SBD,F,
Girls,67.36,5,Trinity Hawkins,Brownsboro,62.6,104.33,68.04,108.86,281.23,Single-ply,SBD,F,
Girls,67.36,6,Tiki Rasberry,Redwater,65.32,108.86,45.36,115.67,269.89,Single-ply,SBD,F,
Girls,67.36,7,Raleigh Rulison,Winnsboro,63.5,102.06,54.43,102.06,258.55,Single-ply,SBD,F,
Girls,67.36,8,Jennifer Esch,Pattonville Prairiland,62.6,88.45,56.7,102.06,247.21,Single-ply,SBD,F,
Girls,67.36,9,Rynn Gamblin,Mount Vernon,66.68,95.25,45.36,104.33,244.94,Single-ply,SBD,F,
Girls,67.36,10,Lexi Taylor,Wills Point,63.05,83.91,52.16,106.59,242.67,Single-ply,SBD,F,
Girls,67.36,11,Honesty Bridges,Commerce,61.23,106.59,38.56,92.99,238.14,Single-ply,SBD,F,
Girls,67.36,12,Hailee Pingitore,Mount Vernon,61.33,106.59,36.29,92.99,235.87,Single-ply,SBD,F,
Girls,67.36,13,Katie Chappell,Commerce,61.23,86.18,38.56,95.25,219.99,Single-ply,SBD,F,
Girls,67.36,14,Helena Bautista-Mathias,Quitman,65.23,65.77,38.56,79.38,183.7,Single-ply,SBD,F,
Girls,67.36,15,Hawraa Al-Khafaji,Royse City,65.77,34.02,29.48,40.82,104.33,Single-ply,SBD,F,
Girls,67.36,DQ,Lexi Smith,Pattonville Prairiland,63.5,104.33,,,,Single-ply,SBD,F,
Girls,67.36,DQ,Katy Hughes,Laird Hill Leveretts Chapel,62.05,102.06,,,,Single-ply,SBD,F,
Girls,75.07,1,Mae Lewis,Brownsboro,71.67,136.08,70.31,133.81,340.19,Single-ply,SBD,F,
Girls,75.07,2,Kaitlin Burrell,Mineola,71.76,142.88,56.7,136.08,335.66,Single-ply,SBD,F,
Girls,75.07,3,Gatha Davis,Quitman,71.85,133.81,56.7,140.61,331.12,Single-ply,SBD,F,
Girls,75.07,4,Bailey Hughes #1,Quitman,72.57,142.88,56.7,131.54,331.12,Single-ply,SBD,F,
Girls,75.07,5,Abby Smith #1,Beckville,71.94,127.01,49.9,136.08,312.98,Single-ply,SBD,F,
Girls,75.07,6,Jaci Coley,Quitman,73.66,127.01,61.23,115.67,303.91,Single-ply,SBD,F,
Girls,75.07,8,Savannah Breding,Quitman,70.31,117.93,56.7,115.67,290.3,Single-ply,SBD,F,
Girls,75.07,9,Baylie Seegers,Beckville,69.4,117.93,43.09,120.2,281.23,Single-ply,SBD,F,
Girls,75.07,10,Addie Kimberlin,Mount Vernon,69.04,108.86,49.9,117.93,276.69,Single-ply,SBD,F,
Girls,75.07,11,Jordyn Blalock,Quitman,70.03,104.33,47.63,113.4,265.35,Single-ply,SBD,F,
Girls,75.07,12,Emily Dean,Beckville,71.67,97.52,43.09,120.2,260.82,Single-ply,SBD,F,
Girls,75.07,13,Irma Garza,Pattonville Prairiland,68.49,95.25,49.9,106.59,251.74,Single-ply,SBD,F,
Girls,75.07,14,Twyla Hayes,Wills Point,69.85,90.72,54.43,102.06,247.21,Single-ply,SBD,F,
Girls,75.07,15,Simone Rios,Royse City,72.12,92.99,43.09,95.25,231.33,Single-ply,SBD,F,
Girls,75.07,16,Hailey Mahaney,Quinlan Boles,68.49,74.84,36.29,83.91,195.04,Single-ply,SBD,F,
Girls,75.07,17,Kimberly Corral,Royse City,69.85,72.57,34.02,63.5,170.1,Single-ply,SBD,F,
Girls,82.33,1,Katherine Palstring,Commerce,78.02,154.22,72.57,142.88,369.68,Single-ply,SBD,F,
Girls,82.33,2,Kat Ragatz,Winnsboro,78.93,142.88,86.18,138.35,367.41,Single-ply,SBD,F,
Girls,82.33,3,Aspen Holm,Royse City,76.2,136.08,79.38,138.35,353.8,Single-ply,SBD,F,
Girls,82.33,4,Gabrielle Patrick,Ore City,75.75,138.35,63.5,113.4,315.25,Single-ply,SBD,F,
Girls,82.33,5,Elajah Fugitt,Commerce,76.2,124.74,52.16,133.81,310.71,Single-ply,SBD,F,
Girls,82.33,7,Grayson Palmer,Redwater,78.93,113.4,45.36,117.93,276.69,Single-ply,SBD,F,
Girls,82.33,8,Andrea Bennett,Beckville,75.75,104.33,49.9,113.4,267.62,Single-ply,SBD,F,
Girls,82.33,9,Rand Nseirat,Redwater,78.06,102.06,43.09,113.4,258.55,Single-ply,SBD,F,
Girls,82.33,10,Miranda Munoz,Quinlan Boles,77.56,106.59,45.36,97.52,249.48,Single-ply,SBD,F,
Girls,82.33,11,Sydney Reid,Quitman,75.3,111.13,40.82,92.99,244.94,Single-ply,SBD,F,
Girls,82.33,13,Lindsey Parker,Brownsboro,78.47,90.72,47.63,97.52,235.87,Single-ply,SBD,F,
Girls,82.33,15,Kylie Scritchfield,Royse City,78.02,77.11,61.23,74.84,213.19,Single-ply,SBD,F,
Girls,82.33,16,Zarah Barcia Virguez,Royse City,75.3,56.7,29.48,43.09,129.27,Single-ply,SBD,F,
Girls,90.04,1,Izzy Tresca,Mineola,88.27,165.56,68.04,129.27,362.87,Single-ply,SBD,F,
Girls,90.04,2,Kyndyle Michelle,Winnsboro,86.18,138.35,70.31,129.27,337.93,Single-ply,SBD,F,
Girls,90.04,3,Dailey Ross,Mount Vernon,83.1,145.15,56.7,117.93,319.78,Single-ply,SBD,F,
Girls,90.04,4,Violeta Compean,Royse City,86.18,127.01,49.9,136.08,312.98,Single-ply,SBD,F,
Girls,90.04,5,Alondra Martinez #1,Wills Point,83.46,90.72,49.9,111.13,251.74,Single-ply,SBD,F,
Girls,100.02,1,Maricela Compean,Royse City,98.43,181.44,90.72,188.24,460.4,Single-ply,SBD,F,
Girls,100.02,2,Rheagan White,Royse City,93.44,136.08,90.72,136.08,362.87,Single-ply,SBD,F,
Girls,100.02,3,Shannon Pel,Commerce,99.34,127.01,56.7,122.47,306.17,Single-ply,SBD,F,
Girls,100.02,4,Madeleine-Rose Garcia,Wills Point,95.71,127.01,68.04,104.33,299.37,Single-ply,SBD,F,
Girls,100.02,5,Karli Cowart,Quitman,98.88,124.74,52.16,102.06,278.96,Single-ply,SBD,F,
Girls,100.02,6,Haley Chaplin,Ore City,95.25,113.4,54.43,104.33,272.16,Single-ply,SBD,F,
Girls,100.02,7,Brandy Rangel,Wills Point,90.26,113.4,45.36,111.13,269.89,Single-ply,SBD,F,
Girls,100.02,8,Mauricia Arrington,Commerce,97.7,108.86,43.09,97.52,249.48,Single-ply,SBD,F,
Girls,117.71,1,Amber Burrow,Mount Vernon,105.96,158.76,72.57,172.37,403.7,Single-ply,SBD,F,
Girls,117.71,2,Hailey Herington,Winnsboro,113.4,142.88,90.72,142.88,376.48,Single-ply,SBD,F,
Girls,117.71,3,India Banks-Bray,Royse City,109.77,108.86,61.23,136.08,306.17,Single-ply,SBD,F,
Girls,117.71,5,Natalie Pepper,Beckville,106.14,83.91,52.16,104.33,240.4,Single-ply,SBD,F,
Girls,117.71+,1,Hannah Manning,Royse City,122.47,86.18,52.16,136.08,274.42,Single-ply,SBD,F,
